[1126/102115.923:ERROR:crash_report_database_win.cc(428)] unexpected header
[1126/103115.923:ERROR:crash_report_database_win.cc(428)] unexpected header
[1126/103115.923:ERROR:crash_report_database_win.cc(428)] unexpected header
[1126/103615.940:ERROR:crash_report_database_win.cc(428)] unexpected header
[1126/105115.941:ERROR:crash_report_database_win.cc(428)] unexpected header
[1126/110615.941:ERROR:crash_report_database_win.cc(428)] unexpected header
[1126/112115.942:ERROR:crash_report_database_win.cc(428)] unexpected header
[1126/113615.942:ERROR:crash_report_database_win.cc(428)] unexpected header
[1126/115115.942:ERROR:crash_report_database_win.cc(428)] unexpected header
[1126/120615.943:ERROR:crash_report_database_win.cc(428)] unexpected header
[1126/122115.944:ERROR:crash_report_database_win.cc(428)] unexpected header
[1126/123615.944:ERROR:crash_report_database_win.cc(428)] unexpected header
[1126/141526.141:ERROR:crash_report_database_win.cc(428)] unexpected header
[1126/143026.141:ERROR:crash_report_database_win.cc(428)] unexpected header
[1126/144526.141:ERROR:crash_report_database_win.cc(428)] unexpected header
[1126/150026.142:ERROR:crash_report_database_win.cc(428)] unexpected header
[1126/151526.143:ERROR:crash_report_database_win.cc(428)] unexpected header
[1126/153026.143:ERROR:crash_report_database_win.cc(428)] unexpected header
[1126/154526.144:ERROR:crash_report_database_win.cc(428)] unexpected header
[1126/160026.145:ERROR:crash_report_database_win.cc(428)] unexpected header
[1126/161526.145:ERROR:crash_report_database_win.cc(428)] unexpected header
[1126/163026.145:ERROR:crash_report_database_win.cc(428)] unexpected header
[1126/164526.146:ERROR:crash_report_database_win.cc(428)] unexpected header
[1126/170026.146:ERROR:crash_report_database_win.cc(428)] unexpected header
[1126/171526.146:ERROR:crash_report_database_win.cc(428)] unexpected header
[1126/173026.146:ERROR:crash_report_database_win.cc(428)] unexpected header
[1126/174526.147:ERROR:crash_report_database_win.cc(428)] unexpected header
[1126/180026.147:ERROR:crash_report_database_win.cc(428)] unexpected header
[1126/181526.147:ERROR:crash_report_database_win.cc(428)] unexpected header
[1126/183026.148:ERROR:crash_report_database_win.cc(428)] unexpected header
[1126/184526.148:ERROR:crash_report_database_win.cc(428)] unexpected header
[1126/190026.149:ERROR:crash_report_database_win.cc(428)] unexpected header
[1126/191526.150:ERROR:crash_report_database_win.cc(428)] unexpected header
[1126/193026.150:ERROR:crash_report_database_win.cc(428)] unexpected header
[1127/093833.584:ERROR:crash_report_database_win.cc(428)] unexpected header
[1127/095333.584:ERROR:crash_report_database_win.cc(428)] unexpected header
[1127/095641.404:ERROR:crash_report_database_win.cc(428)] unexpected header
[1127/100833.585:ERROR:crash_report_database_win.cc(428)] unexpected header
[1127/102333.585:ERROR:crash_report_database_win.cc(428)] unexpected header
[1127/103833.585:ERROR:crash_report_database_win.cc(428)] unexpected header
[1127/105333.586:ERROR:crash_report_database_win.cc(428)] unexpected header
[1127/110833.587:ERROR:crash_report_database_win.cc(428)] unexpected header
[1127/112333.587:ERROR:crash_report_database_win.cc(428)] unexpected header
[1127/113833.588:ERROR:crash_report_database_win.cc(428)] unexpected header
[1127/115333.588:ERROR:crash_report_database_win.cc(428)] unexpected header
[1127/120833.588:ERROR:crash_report_database_win.cc(428)] unexpected header
[1127/122333.589:ERROR:crash_report_database_win.cc(428)] unexpected header
[1127/123833.589:ERROR:crash_report_database_win.cc(428)] unexpected header
[1127/125333.590:ERROR:crash_report_database_win.cc(428)] unexpected header
[1127/130833.590:ERROR:crash_report_database_win.cc(428)] unexpected header
[1127/132333.590:ERROR:crash_report_database_win.cc(428)] unexpected header
[1127/133833.590:ERROR:crash_report_database_win.cc(428)] unexpected header
[1127/135333.590:ERROR:crash_report_database_win.cc(428)] unexpected header
[1127/140833.590:ERROR:crash_report_database_win.cc(428)] unexpected header
[1127/142333.590:ERROR:crash_report_database_win.cc(428)] unexpected header
[1127/143833.591:ERROR:crash_report_database_win.cc(428)] unexpected header
[1127/145333.591:ERROR:crash_report_database_win.cc(428)] unexpected header
[1127/150833.592:ERROR:crash_report_database_win.cc(428)] unexpected header
[1127/152333.593:ERROR:crash_report_database_win.cc(428)] unexpected header
[1127/153833.594:ERROR:crash_report_database_win.cc(428)] unexpected header
[1127/155333.594:ERROR:crash_report_database_win.cc(428)] unexpected header
[1127/160833.595:ERROR:crash_report_database_win.cc(428)] unexpected header
[1127/162333.595:ERROR:crash_report_database_win.cc(428)] unexpected header
[1127/163833.596:ERROR:crash_report_database_win.cc(428)] unexpected header
[1127/165333.597:ERROR:crash_report_database_win.cc(428)] unexpected header
[1127/170833.598:ERROR:crash_report_database_win.cc(428)] unexpected header
[1127/172333.598:ERROR:crash_report_database_win.cc(428)] unexpected header
[1127/180040.205:ERROR:crash_report_database_win.cc(428)] unexpected header
[1127/181040.206:ERROR:crash_report_database_win.cc(428)] unexpected header
[1127/181040.206:ERROR:crash_report_database_win.cc(428)] unexpected header
[1127/181540.601:ERROR:crash_report_database_win.cc(428)] unexpected header
[1127/183040.601:ERROR:crash_report_database_win.cc(428)] unexpected header
[1127/184540.601:ERROR:crash_report_database_win.cc(428)] unexpected header
[1127/190040.602:ERROR:crash_report_database_win.cc(428)] unexpected header
[1127/191540.602:ERROR:crash_report_database_win.cc(428)] unexpected header
[1127/193040.602:ERROR:crash_report_database_win.cc(428)] unexpected header
[1127/194540.603:ERROR:crash_report_database_win.cc(428)] unexpected header
[1127/200040.605:ERROR:crash_report_database_win.cc(428)] unexpected header
[1127/201540.606:ERROR:crash_report_database_win.cc(428)] unexpected header
[1127/203040.606:ERROR:crash_report_database_win.cc(428)] unexpected header
[1128/095703.601:ERROR:crash_report_database_win.cc(428)] unexpected header
[1128/101203.601:ERROR:crash_report_database_win.cc(428)] unexpected header
[1128/102703.601:ERROR:crash_report_database_win.cc(428)] unexpected header
[1128/104203.601:ERROR:crash_report_database_win.cc(428)] unexpected header
[1128/105703.601:ERROR:crash_report_database_win.cc(428)] unexpected header
[1128/111203.602:ERROR:crash_report_database_win.cc(428)] unexpected header
[1128/112703.602:ERROR:crash_report_database_win.cc(428)] unexpected header
[1128/114203.603:ERROR:crash_report_database_win.cc(428)] unexpected header
[1128/115703.603:ERROR:crash_report_database_win.cc(428)] unexpected header
[1128/121203.604:ERROR:crash_report_database_win.cc(428)] unexpected header
[1128/132636.028:ERROR:crash_report_database_win.cc(428)] unexpected header
[1128/134136.029:ERROR:crash_report_database_win.cc(428)] unexpected header
[1128/135632.825:ERROR:crash_report_database_win.cc(428)] unexpected header
[1128/141132.826:ERROR:crash_report_database_win.cc(428)] unexpected header
[1128/142632.827:ERROR:crash_report_database_win.cc(428)] unexpected header
[1128/144132.827:ERROR:crash_report_database_win.cc(428)] unexpected header
[1128/145632.828:ERROR:crash_report_database_win.cc(428)] unexpected header
[1128/151132.828:ERROR:crash_report_database_win.cc(428)] unexpected header
[1128/152632.829:ERROR:crash_report_database_win.cc(428)] unexpected header
[1128/154132.830:ERROR:crash_report_database_win.cc(428)] unexpected header
[1128/155632.831:ERROR:crash_report_database_win.cc(428)] unexpected header
[1128/161132.831:ERROR:crash_report_database_win.cc(428)] unexpected header
[1128/162632.831:ERROR:crash_report_database_win.cc(428)] unexpected header
[1128/164132.832:ERROR:crash_report_database_win.cc(428)] unexpected header
[1128/165632.832:ERROR:crash_report_database_win.cc(428)] unexpected header
[1128/171132.833:ERROR:crash_report_database_win.cc(428)] unexpected header
[1128/172632.834:ERROR:crash_report_database_win.cc(428)] unexpected header
[1128/174406.698:ERROR:crash_report_database_win.cc(428)] unexpected header
[1128/175406.697:ERROR:crash_report_database_win.cc(428)] unexpected header
[1128/175406.697:ERROR:crash_report_database_win.cc(428)] unexpected header
[1128/175906.698:ERROR:crash_report_database_win.cc(428)] unexpected header
[1128/181406.699:ERROR:crash_report_database_win.cc(428)] unexpected header
[1128/182906.699:ERROR:crash_report_database_win.cc(428)] unexpected header
[1128/184406.700:ERROR:crash_report_database_win.cc(428)] unexpected header
[1128/185906.700:ERROR:crash_report_database_win.cc(428)] unexpected header
[1128/193842.925:ERROR:crash_report_database_win.cc(428)] unexpected header
[1128/195342.925:ERROR:crash_report_database_win.cc(428)] unexpected header
[1128/200842.926:ERROR:crash_report_database_win.cc(428)] unexpected header
[1128/202342.926:ERROR:crash_report_database_win.cc(428)] unexpected header
[1129/094243.716:ERROR:crash_report_database_win.cc(428)] unexpected header
[1129/095743.716:ERROR:crash_report_database_win.cc(428)] unexpected header
[1129/101243.717:ERROR:crash_report_database_win.cc(428)] unexpected header
[1129/102743.718:ERROR:crash_report_database_win.cc(428)] unexpected header
[1129/104150.306:ERROR:crash_report_database_win.cc(428)] unexpected header
[1013/103001.595:ERROR:file_io.cc(134)] WriteFile: 管道正在被关闭。 (0xE8)
