{
	"v": "5.6.9",
	"fr": 25,
	"ip": 0,
	"op": 25,
	"w": 1004,
	"h": 458,
	"nm": "合成 2",
	"ddd": 1,
	"assets": [{
		"id": "image_0",
		"w": 256,
		"h": 256,
		"u": "images/",
		"p": "img_0.png",
		"e": 0
	}, {
		"id": "image_1",
		"w": 416,
		"h": 326,
		"u": "images/",
		"p": "img_1.png",
		"e": 0
	}, {
		"id": "image_2",
		"w": 517,
		"h": 131,
		"u": "images/",
		"p": "img_2.png",
		"e": 0
	}, {
		"id": "imgSeq_0",
		"w": 1004,
		"h": 458,
		"t": "seq",
		"u": "images/",
		"p": "seq_0_0.png",
		"e": 0
	}, {
		"id": "imgSeq_1",
		"w": 1004,
		"h": 458,
		"t": "seq",
		"u": "images/",
		"p": "seq_0_1.png",
		"e": 0
	}, {
		"id": "imgSeq_2",
		"w": 1004,
		"h": 458,
		"t": "seq",
		"u": "images/",
		"p": "seq_0_2.png",
		"e": 0
	}, {
		"id": "imgSeq_3",
		"w": 1004,
		"h": 458,
		"t": "seq",
		"u": "images/",
		"p": "seq_0_3.png",
		"e": 0
	}, {
		"id": "imgSeq_4",
		"w": 1004,
		"h": 458,
		"t": "seq",
		"u": "images/",
		"p": "seq_0_4.png",
		"e": 0
	}, {
		"id": "imgSeq_5",
		"w": 1004,
		"h": 458,
		"t": "seq",
		"u": "images/",
		"p": "seq_0_5.png",
		"e": 0
	}, {
		"id": "imgSeq_6",
		"w": 1004,
		"h": 458,
		"t": "seq",
		"u": "images/",
		"p": "seq_0_6.png",
		"e": 0
	}, {
		"id": "imgSeq_7",
		"w": 1004,
		"h": 458,
		"t": "seq",
		"u": "images/",
		"p": "seq_0_7.png",
		"e": 0
	}, {
		"id": "imgSeq_8",
		"w": 1004,
		"h": 458,
		"t": "seq",
		"u": "images/",
		"p": "seq_0_8.png",
		"e": 0
	}, {
		"id": "imgSeq_9",
		"w": 1004,
		"h": 458,
		"t": "seq",
		"u": "images/",
		"p": "seq_0_9.png",
		"e": 0
	}, {
		"id": "imgSeq_10",
		"w": 1004,
		"h": 458,
		"t": "seq",
		"u": "images/",
		"p": "seq_0_10.png",
		"e": 0
	}, {
		"id": "imgSeq_11",
		"w": 1004,
		"h": 458,
		"t": "seq",
		"u": "images/",
		"p": "seq_0_11.png",
		"e": 0
	}, {
		"id": "imgSeq_12",
		"w": 1004,
		"h": 458,
		"t": "seq",
		"u": "images/",
		"p": "seq_0_12.png",
		"e": 0
	}, {
		"id": "imgSeq_13",
		"w": 1004,
		"h": 458,
		"t": "seq",
		"u": "images/",
		"p": "seq_0_13.png",
		"e": 0
	}, {
		"id": "imgSeq_14",
		"w": 1004,
		"h": 458,
		"t": "seq",
		"u": "images/",
		"p": "seq_0_14.png",
		"e": 0
	}, {
		"id": "imgSeq_15",
		"w": 1004,
		"h": 458,
		"t": "seq",
		"u": "images/",
		"p": "seq_0_15.png",
		"e": 0
	}, {
		"id": "imgSeq_16",
		"w": 1004,
		"h": 458,
		"t": "seq",
		"u": "images/",
		"p": "seq_0_16.png",
		"e": 0
	}, {
		"id": "imgSeq_17",
		"w": 1004,
		"h": 458,
		"t": "seq",
		"u": "images/",
		"p": "seq_0_17.png",
		"e": 0
	}, {
		"id": "imgSeq_18",
		"w": 1004,
		"h": 458,
		"t": "seq",
		"u": "images/",
		"p": "seq_0_18.png",
		"e": 0
	}, {
		"id": "imgSeq_19",
		"w": 1004,
		"h": 458,
		"t": "seq",
		"u": "images/",
		"p": "seq_0_19.png",
		"e": 0
	}, {
		"id": "imgSeq_20",
		"w": 1004,
		"h": 458,
		"t": "seq",
		"u": "images/",
		"p": "seq_0_20.png",
		"e": 0
	}, {
		"id": "imgSeq_21",
		"w": 1004,
		"h": 458,
		"t": "seq",
		"u": "images/",
		"p": "seq_0_21.png",
		"e": 0
	}, {
		"id": "imgSeq_22",
		"w": 1004,
		"h": 458,
		"t": "seq",
		"u": "images/",
		"p": "seq_0_22.png",
		"e": 0
	}, {
		"id": "imgSeq_23",
		"w": 1004,
		"h": 458,
		"t": "seq",
		"u": "images/",
		"p": "seq_0_23.png",
		"e": 0
	}, {
		"id": "imgSeq_24",
		"w": 1004,
		"h": 458,
		"t": "seq",
		"u": "images/",
		"p": "seq_0_24.png",
		"e": 0
	}, {
		"id": "imgSeq_25",
		"w": 1004,
		"h": 458,
		"t": "seq",
		"u": "images/",
		"p": "seq_0_25.png",
		"e": 0
	}, {
		"id": "imgSeq_26",
		"w": 1004,
		"h": 458,
		"t": "seq",
		"u": "images/",
		"p": "seq_0_26.png",
		"e": 0
	}, {
		"id": "imgSeq_27",
		"w": 1004,
		"h": 458,
		"t": "seq",
		"u": "images/",
		"p": "seq_0_27.png",
		"e": 0
	}, {
		"id": "imgSeq_28",
		"w": 1004,
		"h": 458,
		"t": "seq",
		"u": "images/",
		"p": "seq_0_28.png",
		"e": 0
	}, {
		"id": "imgSeq_29",
		"w": 1004,
		"h": 458,
		"t": "seq",
		"u": "images/",
		"p": "seq_0_29.png",
		"e": 0
	}, {
		"id": "imgSeq_30",
		"w": 1004,
		"h": 458,
		"t": "seq",
		"u": "images/",
		"p": "seq_0_30.png",
		"e": 0
	}, {
		"id": "imgSeq_31",
		"w": 1004,
		"h": 458,
		"t": "seq",
		"u": "images/",
		"p": "seq_0_31.png",
		"e": 0
	}, {
		"id": "imgSeq_32",
		"w": 1004,
		"h": 458,
		"t": "seq",
		"u": "images/",
		"p": "seq_0_32.png",
		"e": 0
	}, {
		"id": "imgSeq_33",
		"w": 1004,
		"h": 458,
		"t": "seq",
		"u": "images/",
		"p": "seq_0_33.png",
		"e": 0
	}, {
		"id": "imgSeq_34",
		"w": 1004,
		"h": 458,
		"t": "seq",
		"u": "images/",
		"p": "seq_0_34.png",
		"e": 0
	}, {
		"id": "imgSeq_35",
		"w": 1004,
		"h": 458,
		"t": "seq",
		"u": "images/",
		"p": "seq_0_35.png",
		"e": 0
	}, {
		"id": "imgSeq_36",
		"w": 1004,
		"h": 458,
		"t": "seq",
		"u": "images/",
		"p": "seq_0_36.png",
		"e": 0
	}, {
		"id": "imgSeq_37",
		"w": 1004,
		"h": 458,
		"t": "seq",
		"u": "images/",
		"p": "seq_0_37.png",
		"e": 0
	}, {
		"id": "imgSeq_38",
		"w": 1004,
		"h": 458,
		"t": "seq",
		"u": "images/",
		"p": "seq_0_38.png",
		"e": 0
	}, {
		"id": "imgSeq_39",
		"w": 1004,
		"h": 458,
		"t": "seq",
		"u": "images/",
		"p": "seq_0_39.png",
		"e": 0
	}, {
		"id": "imgSeq_40",
		"w": 1004,
		"h": 458,
		"t": "seq",
		"u": "images/",
		"p": "seq_0_40.png",
		"e": 0
	}, {
		"id": "imgSeq_41",
		"w": 1004,
		"h": 458,
		"t": "seq",
		"u": "images/",
		"p": "seq_0_41.png",
		"e": 0
	}, {
		"id": "imgSeq_42",
		"w": 1004,
		"h": 458,
		"t": "seq",
		"u": "images/",
		"p": "seq_0_42.png",
		"e": 0
	}, {
		"id": "imgSeq_43",
		"w": 1004,
		"h": 458,
		"t": "seq",
		"u": "images/",
		"p": "seq_0_43.png",
		"e": 0
	}, {
		"id": "imgSeq_44",
		"w": 1004,
		"h": 458,
		"t": "seq",
		"u": "images/",
		"p": "seq_0_44.png",
		"e": 0
	}, {
		"id": "imgSeq_45",
		"w": 1004,
		"h": 458,
		"t": "seq",
		"u": "images/",
		"p": "seq_0_45.png",
		"e": 0
	}, {
		"id": "imgSeq_46",
		"w": 1004,
		"h": 458,
		"t": "seq",
		"u": "images/",
		"p": "seq_0_46.png",
		"e": 0
	}, {
		"id": "imgSeq_47",
		"w": 1004,
		"h": 458,
		"t": "seq",
		"u": "images/",
		"p": "seq_0_47.png",
		"e": 0
	}, {
		"id": "imgSeq_48",
		"w": 1004,
		"h": 458,
		"t": "seq",
		"u": "images/",
		"p": "seq_0_48.png",
		"e": 0
	}, {
		"id": "imgSeq_49",
		"w": 1004,
		"h": 458,
		"t": "seq",
		"u": "images/",
		"p": "seq_0_49.png",
		"e": 0
	}, {
		"id": "comp_0",
		"layers": [{
			"ddd": 0,
			"ind": 1,
			"ty": 2,
			"nm": "27",
			"refId": "image_0",
			"sr": 1,
			"ks": {
				"o": {
					"a": 1,
					"k": [{
						"i": {
							"x": [0.667],
							"y": [1]
						},
						"o": {
							"x": [0.333],
							"y": [0]
						},
						"t": 20,
						"s": [0],
						"e": [80]
					}, {
						"t": 35
					}],
					"ix": 11
				},
				"r": {
					"a": 1,
					"k": [{
						"i": {
							"x": [0.667],
							"y": [1]
						},
						"o": {
							"x": [0.333],
							"y": [0]
						},
						"t": 20,
						"s": [-15],
						"e": [-29]
					}, {
						"t": 50
					}],
					"ix": 10
				},
				"p": {
					"a": 1,
					"k": [{
						"i": {
							"x": 0.667,
							"y": 1
						},
						"o": {
							"x": 0.333,
							"y": 0
						},
						"t": 20,
						"s": [398, 274, 0],
						"e": [243, 151, 0],
						"to": [-16.5, -45.167, 0],
						"ti": [64.5, 22.167, 0]
					}, {
						"t": 50
					}],
					"ix": 2
				},
				"a": {
					"a": 0,
					"k": [128, 128, 0],
					"ix": 1
				},
				"s": {
					"a": 1,
					"k": [{
						"i": {
							"x": [0.667, 0.667, 0.667],
							"y": [1, 1, 1]
						},
						"o": {
							"x": [0.333, 0.333, 0.333],
							"y": [0, 0, 0]
						},
						"t": 20,
						"s": [12.844, 12.844, 100],
						"e": [20.844, 20.844, 100]
					}, {
						"t": 50
					}],
					"ix": 6
				}
			},
			"ao": 0,
			"ip": 0,
			"op": 750,
			"st": 0,
			"bm": 0
		}, {
			"ddd": 0,
			"ind": 2,
			"ty": 2,
			"nm": "26",
			"refId": "image_0",
			"sr": 1,
			"ks": {
				"o": {
					"a": 1,
					"k": [{
						"i": {
							"x": [0.667],
							"y": [1]
						},
						"o": {
							"x": [0.333],
							"y": [0]
						},
						"t": 15,
						"s": [0],
						"e": [80]
					}, {
						"t": 25
					}],
					"ix": 11
				},
				"r": {
					"a": 1,
					"k": [{
						"i": {
							"x": [0.667],
							"y": [1]
						},
						"o": {
							"x": [0.333],
							"y": [0]
						},
						"t": 15,
						"s": [-15],
						"e": [-39]
					}, {
						"t": 50
					}],
					"ix": 10
				},
				"p": {
					"a": 1,
					"k": [{
						"i": {
							"x": 0.667,
							"y": 1
						},
						"o": {
							"x": 0.333,
							"y": 0
						},
						"t": 15,
						"s": [391, 174, 0],
						"e": [193, 304, 0],
						"to": [-48.5, -1.167, 0],
						"ti": [36.5, -45.833, 0]
					}, {
						"t": 50
					}],
					"ix": 2
				},
				"a": {
					"a": 0,
					"k": [128, 128, 0],
					"ix": 1
				},
				"s": {
					"a": 1,
					"k": [{
						"i": {
							"x": [0.667, 0.667, 0.667],
							"y": [1, 1, 1]
						},
						"o": {
							"x": [0.333, 0.333, 0.333],
							"y": [0, 0, 0]
						},
						"t": 15,
						"s": [19.844, 19.844, 100],
						"e": [29.844, 29.844, 100]
					}, {
						"t": 50
					}],
					"ix": 6
				}
			},
			"ao": 0,
			"ip": 0,
			"op": 750,
			"st": 0,
			"bm": 0
		}, {
			"ddd": 0,
			"ind": 3,
			"ty": 2,
			"nm": "25",
			"refId": "image_0",
			"sr": 1,
			"ks": {
				"o": {
					"a": 1,
					"k": [{
						"i": {
							"x": [0.667],
							"y": [1]
						},
						"o": {
							"x": [0.333],
							"y": [0]
						},
						"t": 5,
						"s": [0],
						"e": [80]
					}, {
						"t": 25
					}],
					"ix": 11
				},
				"r": {
					"a": 1,
					"k": [{
						"i": {
							"x": [0.667],
							"y": [1]
						},
						"o": {
							"x": [0.333],
							"y": [0]
						},
						"t": 5,
						"s": [-15],
						"e": [-39]
					}, {
						"t": 50
					}],
					"ix": 10
				},
				"p": {
					"a": 1,
					"k": [{
						"i": {
							"x": 0.667,
							"y": 1
						},
						"o": {
							"x": 0.333,
							"y": 0
						},
						"t": 5,
						"s": [362, 286, 0],
						"e": [122, 162, 0],
						"to": [-41.5, -57.167, 0],
						"ti": [61.5, 3.167, 0]
					}, {
						"t": 50
					}],
					"ix": 2
				},
				"a": {
					"a": 0,
					"k": [128, 128, 0],
					"ix": 1
				},
				"s": {
					"a": 1,
					"k": [{
						"i": {
							"x": [0.667, 0.667, 0.667],
							"y": [1, 1, 1]
						},
						"o": {
							"x": [0.333, 0.333, 0.333],
							"y": [0, 0, 0]
						},
						"t": 5,
						"s": [29.844, 29.844, 100],
						"e": [38.844, 38.844, 100]
					}, {
						"t": 50
					}],
					"ix": 6
				}
			},
			"ao": 0,
			"ip": 0,
			"op": 750,
			"st": 0,
			"bm": 0
		}, {
			"ddd": 0,
			"ind": 4,
			"ty": 2,
			"nm": "24",
			"refId": "image_0",
			"sr": 1,
			"ks": {
				"o": {
					"a": 1,
					"k": [{
						"i": {
							"x": [0.667],
							"y": [1]
						},
						"o": {
							"x": [0.333],
							"y": [0]
						},
						"t": 15,
						"s": [0],
						"e": [80]
					}, {
						"t": 35
					}],
					"ix": 11
				},
				"r": {
					"a": 1,
					"k": [{
						"i": {
							"x": [0.667],
							"y": [1]
						},
						"o": {
							"x": [0.333],
							"y": [0]
						},
						"t": 15,
						"s": [0],
						"e": [37]
					}, {
						"t": 50
					}],
					"ix": 10
				},
				"p": {
					"a": 1,
					"k": [{
						"i": {
							"x": 0.667,
							"y": 1
						},
						"o": {
							"x": 0.333,
							"y": 0
						},
						"t": 15,
						"s": [722, 322, 0],
						"e": [919, 142, 0],
						"to": [25.5, -56.167, 0],
						"ti": [-74.5, 19.167, 0]
					}, {
						"t": 50
					}],
					"ix": 2
				},
				"a": {
					"a": 0,
					"k": [128, 128, 0],
					"ix": 1
				},
				"s": {
					"a": 1,
					"k": [{
						"i": {
							"x": [0.667, 0.667, 0.667],
							"y": [1, 1, 1]
						},
						"o": {
							"x": [0.333, 0.333, 0.333],
							"y": [0, 0, 0]
						},
						"t": 15,
						"s": [16.844, 16.844, 100],
						"e": [19.844, 19.844, 100]
					}, {
						"t": 50
					}],
					"ix": 6
				}
			},
			"ao": 0,
			"ip": 0,
			"op": 750,
			"st": 0,
			"bm": 0
		}, {
			"ddd": 0,
			"ind": 5,
			"ty": 2,
			"nm": "23",
			"refId": "image_0",
			"sr": 1,
			"ks": {
				"o": {
					"a": 1,
					"k": [{
						"i": {
							"x": [0.667],
							"y": [1]
						},
						"o": {
							"x": [0.333],
							"y": [0]
						},
						"t": 20,
						"s": [0],
						"e": [80]
					}, {
						"t": 35
					}],
					"ix": 11
				},
				"r": {
					"a": 1,
					"k": [{
						"i": {
							"x": [0.667],
							"y": [1]
						},
						"o": {
							"x": [0.333],
							"y": [0]
						},
						"t": 20,
						"s": [0],
						"e": [37]
					}, {
						"t": 50
					}],
					"ix": 10
				},
				"p": {
					"a": 1,
					"k": [{
						"i": {
							"x": 0.667,
							"y": 1
						},
						"o": {
							"x": 0.333,
							"y": 0
						},
						"t": 20,
						"s": [639, 288, 0],
						"e": [848, 240, 0],
						"to": [45.5, -48.167, 0],
						"ti": [-80.5, -11.833, 0]
					}, {
						"t": 50
					}],
					"ix": 2
				},
				"a": {
					"a": 0,
					"k": [128, 128, 0],
					"ix": 1
				},
				"s": {
					"a": 1,
					"k": [{
						"i": {
							"x": [0.667, 0.667, 0.667],
							"y": [1, 1, 1]
						},
						"o": {
							"x": [0.333, 0.333, 0.333],
							"y": [0, 0, 0]
						},
						"t": 20,
						"s": [20.844, 20.844, 100],
						"e": [28.844, 28.844, 100]
					}, {
						"t": 50
					}],
					"ix": 6
				}
			},
			"ao": 0,
			"ip": 0,
			"op": 750,
			"st": 0,
			"bm": 0
		}, {
			"ddd": 0,
			"ind": 6,
			"ty": 2,
			"nm": "22",
			"refId": "image_0",
			"sr": 1,
			"ks": {
				"o": {
					"a": 1,
					"k": [{
						"i": {
							"x": [0.667],
							"y": [1]
						},
						"o": {
							"x": [0.333],
							"y": [0]
						},
						"t": 5,
						"s": [0],
						"e": [80]
					}, {
						"t": 25
					}],
					"ix": 11
				},
				"r": {
					"a": 1,
					"k": [{
						"i": {
							"x": [0.667],
							"y": [1]
						},
						"o": {
							"x": [0.333],
							"y": [0]
						},
						"t": 5,
						"s": [0],
						"e": [37]
					}, {
						"t": 50
					}],
					"ix": 10
				},
				"p": {
					"a": 1,
					"k": [{
						"i": {
							"x": 0.667,
							"y": 1
						},
						"o": {
							"x": 0.333,
							"y": 0
						},
						"t": 5,
						"s": [502, 229, 0],
						"e": [775, 120, 0],
						"to": [45.5, -48.167, 0],
						"ti": [-80.5, -11.833, 0]
					}, {
						"t": 50
					}],
					"ix": 2
				},
				"a": {
					"a": 0,
					"k": [128, 128, 0],
					"ix": 1
				},
				"s": {
					"a": 0,
					"k": [39.844, 39.844, 100],
					"ix": 6
				}
			},
			"ao": 0,
			"ip": 0,
			"op": 750,
			"st": 0,
			"bm": 0
		}]
	}, {
		"id": "sequence_0",
		"layers": [{
			"ty": 2,
			"sc": "#00ffff",
			"refId": "imgSeq_0",
			"ks": {
				"p": {
					"a": 0,
					"k": [0, 0]
				},
				"a": {
					"a": 0,
					"k": [0, 0]
				},
				"s": {
					"a": 0,
					"k": [100, 100]
				},
				"r": {
					"a": 0,
					"k": [0]
				},
				"o": {
					"a": 0,
					"k": [100]
				}
			},
			"ip": 0,
			"st": 0,
			"op": 1,
			"sr": 1,
			"bm": 0
		}, {
			"ty": 2,
			"sc": "#00ffff",
			"refId": "imgSeq_1",
			"ks": {
				"p": {
					"a": 0,
					"k": [0, 0]
				},
				"a": {
					"a": 0,
					"k": [0, 0]
				},
				"s": {
					"a": 0,
					"k": [100, 100]
				},
				"r": {
					"a": 0,
					"k": [0]
				},
				"o": {
					"a": 0,
					"k": [100]
				}
			},
			"ip": 1,
			"st": 1,
			"op": 2,
			"sr": 1,
			"bm": 0
		}, {
			"ty": 2,
			"sc": "#00ffff",
			"refId": "imgSeq_2",
			"ks": {
				"p": {
					"a": 0,
					"k": [0, 0]
				},
				"a": {
					"a": 0,
					"k": [0, 0]
				},
				"s": {
					"a": 0,
					"k": [100, 100]
				},
				"r": {
					"a": 0,
					"k": [0]
				},
				"o": {
					"a": 0,
					"k": [100]
				}
			},
			"ip": 2,
			"st": 2,
			"op": 3,
			"sr": 1,
			"bm": 0
		}, {
			"ty": 2,
			"sc": "#00ffff",
			"refId": "imgSeq_3",
			"ks": {
				"p": {
					"a": 0,
					"k": [0, 0]
				},
				"a": {
					"a": 0,
					"k": [0, 0]
				},
				"s": {
					"a": 0,
					"k": [100, 100]
				},
				"r": {
					"a": 0,
					"k": [0]
				},
				"o": {
					"a": 0,
					"k": [100]
				}
			},
			"ip": 3,
			"st": 3,
			"op": 4,
			"sr": 1,
			"bm": 0
		}, {
			"ty": 2,
			"sc": "#00ffff",
			"refId": "imgSeq_4",
			"ks": {
				"p": {
					"a": 0,
					"k": [0, 0]
				},
				"a": {
					"a": 0,
					"k": [0, 0]
				},
				"s": {
					"a": 0,
					"k": [100, 100]
				},
				"r": {
					"a": 0,
					"k": [0]
				},
				"o": {
					"a": 0,
					"k": [100]
				}
			},
			"ip": 4,
			"st": 4,
			"op": 5,
			"sr": 1,
			"bm": 0
		}, {
			"ty": 2,
			"sc": "#00ffff",
			"refId": "imgSeq_5",
			"ks": {
				"p": {
					"a": 0,
					"k": [0, 0]
				},
				"a": {
					"a": 0,
					"k": [0, 0]
				},
				"s": {
					"a": 0,
					"k": [100, 100]
				},
				"r": {
					"a": 0,
					"k": [0]
				},
				"o": {
					"a": 0,
					"k": [100]
				}
			},
			"ip": 5,
			"st": 5,
			"op": 6,
			"sr": 1,
			"bm": 0
		}, {
			"ty": 2,
			"sc": "#00ffff",
			"refId": "imgSeq_6",
			"ks": {
				"p": {
					"a": 0,
					"k": [0, 0]
				},
				"a": {
					"a": 0,
					"k": [0, 0]
				},
				"s": {
					"a": 0,
					"k": [100, 100]
				},
				"r": {
					"a": 0,
					"k": [0]
				},
				"o": {
					"a": 0,
					"k": [100]
				}
			},
			"ip": 6,
			"st": 6,
			"op": 7,
			"sr": 1,
			"bm": 0
		}, {
			"ty": 2,
			"sc": "#00ffff",
			"refId": "imgSeq_7",
			"ks": {
				"p": {
					"a": 0,
					"k": [0, 0]
				},
				"a": {
					"a": 0,
					"k": [0, 0]
				},
				"s": {
					"a": 0,
					"k": [100, 100]
				},
				"r": {
					"a": 0,
					"k": [0]
				},
				"o": {
					"a": 0,
					"k": [100]
				}
			},
			"ip": 7,
			"st": 7,
			"op": 8,
			"sr": 1,
			"bm": 0
		}, {
			"ty": 2,
			"sc": "#00ffff",
			"refId": "imgSeq_8",
			"ks": {
				"p": {
					"a": 0,
					"k": [0, 0]
				},
				"a": {
					"a": 0,
					"k": [0, 0]
				},
				"s": {
					"a": 0,
					"k": [100, 100]
				},
				"r": {
					"a": 0,
					"k": [0]
				},
				"o": {
					"a": 0,
					"k": [100]
				}
			},
			"ip": 8,
			"st": 8,
			"op": 9,
			"sr": 1,
			"bm": 0
		}, {
			"ty": 2,
			"sc": "#00ffff",
			"refId": "imgSeq_9",
			"ks": {
				"p": {
					"a": 0,
					"k": [0, 0]
				},
				"a": {
					"a": 0,
					"k": [0, 0]
				},
				"s": {
					"a": 0,
					"k": [100, 100]
				},
				"r": {
					"a": 0,
					"k": [0]
				},
				"o": {
					"a": 0,
					"k": [100]
				}
			},
			"ip": 9,
			"st": 9,
			"op": 10,
			"sr": 1,
			"bm": 0
		}, {
			"ty": 2,
			"sc": "#00ffff",
			"refId": "imgSeq_10",
			"ks": {
				"p": {
					"a": 0,
					"k": [0, 0]
				},
				"a": {
					"a": 0,
					"k": [0, 0]
				},
				"s": {
					"a": 0,
					"k": [100, 100]
				},
				"r": {
					"a": 0,
					"k": [0]
				},
				"o": {
					"a": 0,
					"k": [100]
				}
			},
			"ip": 10,
			"st": 10,
			"op": 11,
			"sr": 1,
			"bm": 0
		}, {
			"ty": 2,
			"sc": "#00ffff",
			"refId": "imgSeq_11",
			"ks": {
				"p": {
					"a": 0,
					"k": [0, 0]
				},
				"a": {
					"a": 0,
					"k": [0, 0]
				},
				"s": {
					"a": 0,
					"k": [100, 100]
				},
				"r": {
					"a": 0,
					"k": [0]
				},
				"o": {
					"a": 0,
					"k": [100]
				}
			},
			"ip": 11,
			"st": 11,
			"op": 12,
			"sr": 1,
			"bm": 0
		}, {
			"ty": 2,
			"sc": "#00ffff",
			"refId": "imgSeq_12",
			"ks": {
				"p": {
					"a": 0,
					"k": [0, 0]
				},
				"a": {
					"a": 0,
					"k": [0, 0]
				},
				"s": {
					"a": 0,
					"k": [100, 100]
				},
				"r": {
					"a": 0,
					"k": [0]
				},
				"o": {
					"a": 0,
					"k": [100]
				}
			},
			"ip": 12,
			"st": 12,
			"op": 13,
			"sr": 1,
			"bm": 0
		}, {
			"ty": 2,
			"sc": "#00ffff",
			"refId": "imgSeq_13",
			"ks": {
				"p": {
					"a": 0,
					"k": [0, 0]
				},
				"a": {
					"a": 0,
					"k": [0, 0]
				},
				"s": {
					"a": 0,
					"k": [100, 100]
				},
				"r": {
					"a": 0,
					"k": [0]
				},
				"o": {
					"a": 0,
					"k": [100]
				}
			},
			"ip": 13,
			"st": 13,
			"op": 14,
			"sr": 1,
			"bm": 0
		}, {
			"ty": 2,
			"sc": "#00ffff",
			"refId": "imgSeq_14",
			"ks": {
				"p": {
					"a": 0,
					"k": [0, 0]
				},
				"a": {
					"a": 0,
					"k": [0, 0]
				},
				"s": {
					"a": 0,
					"k": [100, 100]
				},
				"r": {
					"a": 0,
					"k": [0]
				},
				"o": {
					"a": 0,
					"k": [100]
				}
			},
			"ip": 14,
			"st": 14,
			"op": 15,
			"sr": 1,
			"bm": 0
		}, {
			"ty": 2,
			"sc": "#00ffff",
			"refId": "imgSeq_15",
			"ks": {
				"p": {
					"a": 0,
					"k": [0, 0]
				},
				"a": {
					"a": 0,
					"k": [0, 0]
				},
				"s": {
					"a": 0,
					"k": [100, 100]
				},
				"r": {
					"a": 0,
					"k": [0]
				},
				"o": {
					"a": 0,
					"k": [100]
				}
			},
			"ip": 15,
			"st": 15,
			"op": 16,
			"sr": 1,
			"bm": 0
		}, {
			"ty": 2,
			"sc": "#00ffff",
			"refId": "imgSeq_16",
			"ks": {
				"p": {
					"a": 0,
					"k": [0, 0]
				},
				"a": {
					"a": 0,
					"k": [0, 0]
				},
				"s": {
					"a": 0,
					"k": [100, 100]
				},
				"r": {
					"a": 0,
					"k": [0]
				},
				"o": {
					"a": 0,
					"k": [100]
				}
			},
			"ip": 16,
			"st": 16,
			"op": 17,
			"sr": 1,
			"bm": 0
		}, {
			"ty": 2,
			"sc": "#00ffff",
			"refId": "imgSeq_17",
			"ks": {
				"p": {
					"a": 0,
					"k": [0, 0]
				},
				"a": {
					"a": 0,
					"k": [0, 0]
				},
				"s": {
					"a": 0,
					"k": [100, 100]
				},
				"r": {
					"a": 0,
					"k": [0]
				},
				"o": {
					"a": 0,
					"k": [100]
				}
			},
			"ip": 17,
			"st": 17,
			"op": 18,
			"sr": 1,
			"bm": 0
		}, {
			"ty": 2,
			"sc": "#00ffff",
			"refId": "imgSeq_18",
			"ks": {
				"p": {
					"a": 0,
					"k": [0, 0]
				},
				"a": {
					"a": 0,
					"k": [0, 0]
				},
				"s": {
					"a": 0,
					"k": [100, 100]
				},
				"r": {
					"a": 0,
					"k": [0]
				},
				"o": {
					"a": 0,
					"k": [100]
				}
			},
			"ip": 18,
			"st": 18,
			"op": 19,
			"sr": 1,
			"bm": 0
		}, {
			"ty": 2,
			"sc": "#00ffff",
			"refId": "imgSeq_19",
			"ks": {
				"p": {
					"a": 0,
					"k": [0, 0]
				},
				"a": {
					"a": 0,
					"k": [0, 0]
				},
				"s": {
					"a": 0,
					"k": [100, 100]
				},
				"r": {
					"a": 0,
					"k": [0]
				},
				"o": {
					"a": 0,
					"k": [100]
				}
			},
			"ip": 19,
			"st": 19,
			"op": 20,
			"sr": 1,
			"bm": 0
		}, {
			"ty": 2,
			"sc": "#00ffff",
			"refId": "imgSeq_20",
			"ks": {
				"p": {
					"a": 0,
					"k": [0, 0]
				},
				"a": {
					"a": 0,
					"k": [0, 0]
				},
				"s": {
					"a": 0,
					"k": [100, 100]
				},
				"r": {
					"a": 0,
					"k": [0]
				},
				"o": {
					"a": 0,
					"k": [100]
				}
			},
			"ip": 20,
			"st": 20,
			"op": 21,
			"sr": 1,
			"bm": 0
		}, {
			"ty": 2,
			"sc": "#00ffff",
			"refId": "imgSeq_21",
			"ks": {
				"p": {
					"a": 0,
					"k": [0, 0]
				},
				"a": {
					"a": 0,
					"k": [0, 0]
				},
				"s": {
					"a": 0,
					"k": [100, 100]
				},
				"r": {
					"a": 0,
					"k": [0]
				},
				"o": {
					"a": 0,
					"k": [100]
				}
			},
			"ip": 21,
			"st": 21,
			"op": 22,
			"sr": 1,
			"bm": 0
		}, {
			"ty": 2,
			"sc": "#00ffff",
			"refId": "imgSeq_22",
			"ks": {
				"p": {
					"a": 0,
					"k": [0, 0]
				},
				"a": {
					"a": 0,
					"k": [0, 0]
				},
				"s": {
					"a": 0,
					"k": [100, 100]
				},
				"r": {
					"a": 0,
					"k": [0]
				},
				"o": {
					"a": 0,
					"k": [100]
				}
			},
			"ip": 22,
			"st": 22,
			"op": 23,
			"sr": 1,
			"bm": 0
		}, {
			"ty": 2,
			"sc": "#00ffff",
			"refId": "imgSeq_23",
			"ks": {
				"p": {
					"a": 0,
					"k": [0, 0]
				},
				"a": {
					"a": 0,
					"k": [0, 0]
				},
				"s": {
					"a": 0,
					"k": [100, 100]
				},
				"r": {
					"a": 0,
					"k": [0]
				},
				"o": {
					"a": 0,
					"k": [100]
				}
			},
			"ip": 23,
			"st": 23,
			"op": 24,
			"sr": 1,
			"bm": 0
		}, {
			"ty": 2,
			"sc": "#00ffff",
			"refId": "imgSeq_24",
			"ks": {
				"p": {
					"a": 0,
					"k": [0, 0]
				},
				"a": {
					"a": 0,
					"k": [0, 0]
				},
				"s": {
					"a": 0,
					"k": [100, 100]
				},
				"r": {
					"a": 0,
					"k": [0]
				},
				"o": {
					"a": 0,
					"k": [100]
				}
			},
			"ip": 24,
			"st": 24,
			"op": 25,
			"sr": 1,
			"bm": 0
		}, {
			"ty": 2,
			"sc": "#00ffff",
			"refId": "imgSeq_25",
			"ks": {
				"p": {
					"a": 0,
					"k": [0, 0]
				},
				"a": {
					"a": 0,
					"k": [0, 0]
				},
				"s": {
					"a": 0,
					"k": [100, 100]
				},
				"r": {
					"a": 0,
					"k": [0]
				},
				"o": {
					"a": 0,
					"k": [100]
				}
			},
			"ip": 25,
			"st": 25,
			"op": 26,
			"sr": 1,
			"bm": 0
		}, {
			"ty": 2,
			"sc": "#00ffff",
			"refId": "imgSeq_26",
			"ks": {
				"p": {
					"a": 0,
					"k": [0, 0]
				},
				"a": {
					"a": 0,
					"k": [0, 0]
				},
				"s": {
					"a": 0,
					"k": [100, 100]
				},
				"r": {
					"a": 0,
					"k": [0]
				},
				"o": {
					"a": 0,
					"k": [100]
				}
			},
			"ip": 26,
			"st": 26,
			"op": 27,
			"sr": 1,
			"bm": 0
		}, {
			"ty": 2,
			"sc": "#00ffff",
			"refId": "imgSeq_27",
			"ks": {
				"p": {
					"a": 0,
					"k": [0, 0]
				},
				"a": {
					"a": 0,
					"k": [0, 0]
				},
				"s": {
					"a": 0,
					"k": [100, 100]
				},
				"r": {
					"a": 0,
					"k": [0]
				},
				"o": {
					"a": 0,
					"k": [100]
				}
			},
			"ip": 27,
			"st": 27,
			"op": 28,
			"sr": 1,
			"bm": 0
		}, {
			"ty": 2,
			"sc": "#00ffff",
			"refId": "imgSeq_28",
			"ks": {
				"p": {
					"a": 0,
					"k": [0, 0]
				},
				"a": {
					"a": 0,
					"k": [0, 0]
				},
				"s": {
					"a": 0,
					"k": [100, 100]
				},
				"r": {
					"a": 0,
					"k": [0]
				},
				"o": {
					"a": 0,
					"k": [100]
				}
			},
			"ip": 28,
			"st": 28,
			"op": 29,
			"sr": 1,
			"bm": 0
		}, {
			"ty": 2,
			"sc": "#00ffff",
			"refId": "imgSeq_29",
			"ks": {
				"p": {
					"a": 0,
					"k": [0, 0]
				},
				"a": {
					"a": 0,
					"k": [0, 0]
				},
				"s": {
					"a": 0,
					"k": [100, 100]
				},
				"r": {
					"a": 0,
					"k": [0]
				},
				"o": {
					"a": 0,
					"k": [100]
				}
			},
			"ip": 29,
			"st": 29,
			"op": 30,
			"sr": 1,
			"bm": 0
		}, {
			"ty": 2,
			"sc": "#00ffff",
			"refId": "imgSeq_30",
			"ks": {
				"p": {
					"a": 0,
					"k": [0, 0]
				},
				"a": {
					"a": 0,
					"k": [0, 0]
				},
				"s": {
					"a": 0,
					"k": [100, 100]
				},
				"r": {
					"a": 0,
					"k": [0]
				},
				"o": {
					"a": 0,
					"k": [100]
				}
			},
			"ip": 30,
			"st": 30,
			"op": 31,
			"sr": 1,
			"bm": 0
		}, {
			"ty": 2,
			"sc": "#00ffff",
			"refId": "imgSeq_31",
			"ks": {
				"p": {
					"a": 0,
					"k": [0, 0]
				},
				"a": {
					"a": 0,
					"k": [0, 0]
				},
				"s": {
					"a": 0,
					"k": [100, 100]
				},
				"r": {
					"a": 0,
					"k": [0]
				},
				"o": {
					"a": 0,
					"k": [100]
				}
			},
			"ip": 31,
			"st": 31,
			"op": 32,
			"sr": 1,
			"bm": 0
		}, {
			"ty": 2,
			"sc": "#00ffff",
			"refId": "imgSeq_32",
			"ks": {
				"p": {
					"a": 0,
					"k": [0, 0]
				},
				"a": {
					"a": 0,
					"k": [0, 0]
				},
				"s": {
					"a": 0,
					"k": [100, 100]
				},
				"r": {
					"a": 0,
					"k": [0]
				},
				"o": {
					"a": 0,
					"k": [100]
				}
			},
			"ip": 32,
			"st": 32,
			"op": 33,
			"sr": 1,
			"bm": 0
		}, {
			"ty": 2,
			"sc": "#00ffff",
			"refId": "imgSeq_33",
			"ks": {
				"p": {
					"a": 0,
					"k": [0, 0]
				},
				"a": {
					"a": 0,
					"k": [0, 0]
				},
				"s": {
					"a": 0,
					"k": [100, 100]
				},
				"r": {
					"a": 0,
					"k": [0]
				},
				"o": {
					"a": 0,
					"k": [100]
				}
			},
			"ip": 33,
			"st": 33,
			"op": 34,
			"sr": 1,
			"bm": 0
		}, {
			"ty": 2,
			"sc": "#00ffff",
			"refId": "imgSeq_34",
			"ks": {
				"p": {
					"a": 0,
					"k": [0, 0]
				},
				"a": {
					"a": 0,
					"k": [0, 0]
				},
				"s": {
					"a": 0,
					"k": [100, 100]
				},
				"r": {
					"a": 0,
					"k": [0]
				},
				"o": {
					"a": 0,
					"k": [100]
				}
			},
			"ip": 34,
			"st": 34,
			"op": 35,
			"sr": 1,
			"bm": 0
		}, {
			"ty": 2,
			"sc": "#00ffff",
			"refId": "imgSeq_35",
			"ks": {
				"p": {
					"a": 0,
					"k": [0, 0]
				},
				"a": {
					"a": 0,
					"k": [0, 0]
				},
				"s": {
					"a": 0,
					"k": [100, 100]
				},
				"r": {
					"a": 0,
					"k": [0]
				},
				"o": {
					"a": 0,
					"k": [100]
				}
			},
			"ip": 35,
			"st": 35,
			"op": 36,
			"sr": 1,
			"bm": 0
		}, {
			"ty": 2,
			"sc": "#00ffff",
			"refId": "imgSeq_36",
			"ks": {
				"p": {
					"a": 0,
					"k": [0, 0]
				},
				"a": {
					"a": 0,
					"k": [0, 0]
				},
				"s": {
					"a": 0,
					"k": [100, 100]
				},
				"r": {
					"a": 0,
					"k": [0]
				},
				"o": {
					"a": 0,
					"k": [100]
				}
			},
			"ip": 36,
			"st": 36,
			"op": 37,
			"sr": 1,
			"bm": 0
		}, {
			"ty": 2,
			"sc": "#00ffff",
			"refId": "imgSeq_37",
			"ks": {
				"p": {
					"a": 0,
					"k": [0, 0]
				},
				"a": {
					"a": 0,
					"k": [0, 0]
				},
				"s": {
					"a": 0,
					"k": [100, 100]
				},
				"r": {
					"a": 0,
					"k": [0]
				},
				"o": {
					"a": 0,
					"k": [100]
				}
			},
			"ip": 37,
			"st": 37,
			"op": 38,
			"sr": 1,
			"bm": 0
		}, {
			"ty": 2,
			"sc": "#00ffff",
			"refId": "imgSeq_38",
			"ks": {
				"p": {
					"a": 0,
					"k": [0, 0]
				},
				"a": {
					"a": 0,
					"k": [0, 0]
				},
				"s": {
					"a": 0,
					"k": [100, 100]
				},
				"r": {
					"a": 0,
					"k": [0]
				},
				"o": {
					"a": 0,
					"k": [100]
				}
			},
			"ip": 38,
			"st": 38,
			"op": 39,
			"sr": 1,
			"bm": 0
		}, {
			"ty": 2,
			"sc": "#00ffff",
			"refId": "imgSeq_39",
			"ks": {
				"p": {
					"a": 0,
					"k": [0, 0]
				},
				"a": {
					"a": 0,
					"k": [0, 0]
				},
				"s": {
					"a": 0,
					"k": [100, 100]
				},
				"r": {
					"a": 0,
					"k": [0]
				},
				"o": {
					"a": 0,
					"k": [100]
				}
			},
			"ip": 39,
			"st": 39,
			"op": 40,
			"sr": 1,
			"bm": 0
		}, {
			"ty": 2,
			"sc": "#00ffff",
			"refId": "imgSeq_40",
			"ks": {
				"p": {
					"a": 0,
					"k": [0, 0]
				},
				"a": {
					"a": 0,
					"k": [0, 0]
				},
				"s": {
					"a": 0,
					"k": [100, 100]
				},
				"r": {
					"a": 0,
					"k": [0]
				},
				"o": {
					"a": 0,
					"k": [100]
				}
			},
			"ip": 40,
			"st": 40,
			"op": 41,
			"sr": 1,
			"bm": 0
		}, {
			"ty": 2,
			"sc": "#00ffff",
			"refId": "imgSeq_41",
			"ks": {
				"p": {
					"a": 0,
					"k": [0, 0]
				},
				"a": {
					"a": 0,
					"k": [0, 0]
				},
				"s": {
					"a": 0,
					"k": [100, 100]
				},
				"r": {
					"a": 0,
					"k": [0]
				},
				"o": {
					"a": 0,
					"k": [100]
				}
			},
			"ip": 41,
			"st": 41,
			"op": 42,
			"sr": 1,
			"bm": 0
		}, {
			"ty": 2,
			"sc": "#00ffff",
			"refId": "imgSeq_42",
			"ks": {
				"p": {
					"a": 0,
					"k": [0, 0]
				},
				"a": {
					"a": 0,
					"k": [0, 0]
				},
				"s": {
					"a": 0,
					"k": [100, 100]
				},
				"r": {
					"a": 0,
					"k": [0]
				},
				"o": {
					"a": 0,
					"k": [100]
				}
			},
			"ip": 42,
			"st": 42,
			"op": 43,
			"sr": 1,
			"bm": 0
		}, {
			"ty": 2,
			"sc": "#00ffff",
			"refId": "imgSeq_43",
			"ks": {
				"p": {
					"a": 0,
					"k": [0, 0]
				},
				"a": {
					"a": 0,
					"k": [0, 0]
				},
				"s": {
					"a": 0,
					"k": [100, 100]
				},
				"r": {
					"a": 0,
					"k": [0]
				},
				"o": {
					"a": 0,
					"k": [100]
				}
			},
			"ip": 43,
			"st": 43,
			"op": 44,
			"sr": 1,
			"bm": 0
		}, {
			"ty": 2,
			"sc": "#00ffff",
			"refId": "imgSeq_44",
			"ks": {
				"p": {
					"a": 0,
					"k": [0, 0]
				},
				"a": {
					"a": 0,
					"k": [0, 0]
				},
				"s": {
					"a": 0,
					"k": [100, 100]
				},
				"r": {
					"a": 0,
					"k": [0]
				},
				"o": {
					"a": 0,
					"k": [100]
				}
			},
			"ip": 44,
			"st": 44,
			"op": 45,
			"sr": 1,
			"bm": 0
		}, {
			"ty": 2,
			"sc": "#00ffff",
			"refId": "imgSeq_45",
			"ks": {
				"p": {
					"a": 0,
					"k": [0, 0]
				},
				"a": {
					"a": 0,
					"k": [0, 0]
				},
				"s": {
					"a": 0,
					"k": [100, 100]
				},
				"r": {
					"a": 0,
					"k": [0]
				},
				"o": {
					"a": 0,
					"k": [100]
				}
			},
			"ip": 45,
			"st": 45,
			"op": 46,
			"sr": 1,
			"bm": 0
		}, {
			"ty": 2,
			"sc": "#00ffff",
			"refId": "imgSeq_46",
			"ks": {
				"p": {
					"a": 0,
					"k": [0, 0]
				},
				"a": {
					"a": 0,
					"k": [0, 0]
				},
				"s": {
					"a": 0,
					"k": [100, 100]
				},
				"r": {
					"a": 0,
					"k": [0]
				},
				"o": {
					"a": 0,
					"k": [100]
				}
			},
			"ip": 46,
			"st": 46,
			"op": 47,
			"sr": 1,
			"bm": 0
		}, {
			"ty": 2,
			"sc": "#00ffff",
			"refId": "imgSeq_47",
			"ks": {
				"p": {
					"a": 0,
					"k": [0, 0]
				},
				"a": {
					"a": 0,
					"k": [0, 0]
				},
				"s": {
					"a": 0,
					"k": [100, 100]
				},
				"r": {
					"a": 0,
					"k": [0]
				},
				"o": {
					"a": 0,
					"k": [100]
				}
			},
			"ip": 47,
			"st": 47,
			"op": 48,
			"sr": 1,
			"bm": 0
		}, {
			"ty": 2,
			"sc": "#00ffff",
			"refId": "imgSeq_48",
			"ks": {
				"p": {
					"a": 0,
					"k": [0, 0]
				},
				"a": {
					"a": 0,
					"k": [0, 0]
				},
				"s": {
					"a": 0,
					"k": [100, 100]
				},
				"r": {
					"a": 0,
					"k": [0]
				},
				"o": {
					"a": 0,
					"k": [100]
				}
			},
			"ip": 48,
			"st": 48,
			"op": 49,
			"sr": 1,
			"bm": 0
		}, {
			"ty": 2,
			"sc": "#00ffff",
			"refId": "imgSeq_49",
			"ks": {
				"p": {
					"a": 0,
					"k": [0, 0]
				},
				"a": {
					"a": 0,
					"k": [0, 0]
				},
				"s": {
					"a": 0,
					"k": [100, 100]
				},
				"r": {
					"a": 0,
					"k": [0]
				},
				"o": {
					"a": 0,
					"k": [100]
				}
			},
			"ip": 49,
			"st": 49,
			"op": 51,
			"sr": 1,
			"bm": 0
		}]
	}],
	"layers": [{
		"ddd": 0,
		"ind": 4,
		"ty": 0,
		"nm": "预合成 2",
		"refId": "comp_0",
		"sr": 0.5,
		"ks": {
			"o": {
				"a": 0,
				"k": 100,
				"ix": 11
			},
			"r": {
				"a": 0,
				"k": 0,
				"ix": 10
			},
			"p": {
				"a": 0,
				"k": [502, 229, 0],
				"ix": 2
			},
			"a": {
				"a": 0,
				"k": [502, 229, 0],
				"ix": 1
			},
			"s": {
				"a": 0,
				"k": [100, 100, 100],
				"ix": 6
			}
		},
		"ao": 0,
		"w": 1004,
		"h": 458,
		"ip": 0,
		"op": 375,
		"st": 0,
		"bm": 0
	}, {
		"ddd": 1,
		"ind": 5,
		"ty": 2,
		"nm": "Lark20210728-110556.png",
		"cl": "png",
		"refId": "image_1",
		"sr": 1,
		"ks": {
			"o": {
				"a": 0,
				"k": 100,
				"ix": 11
			},
			"rx": {
				"a": 0,
				"k": 0,
				"ix": 8
			},
			"ry": {
				"a": 0,
				"k": 0,
				"ix": 9
			},
			"rz": {
				"a": 1,
				"k": [{
					"i": {
						"x": [0.667],
						"y": [1]
					},
					"o": {
						"x": [0.333],
						"y": [0]
					},
					"t": 0,
					"s": [0],
					"e": [-5]
				}, {
					"i": {
						"x": [0.667],
						"y": [1]
					},
					"o": {
						"x": [0.333],
						"y": [0]
					},
					"t": 2,
					"s": [-5],
					"e": [5]
				}, {
					"i": {
						"x": [0.667],
						"y": [1]
					},
					"o": {
						"x": [0.333],
						"y": [0]
					},
					"t": 5,
					"s": [5],
					"e": [-5]
				}, {
					"i": {
						"x": [0.667],
						"y": [1]
					},
					"o": {
						"x": [0.333],
						"y": [0]
					},
					"t": 8,
					"s": [-5],
					"e": [5]
				}, {
					"i": {
						"x": [0.667],
						"y": [1]
					},
					"o": {
						"x": [0.333],
						"y": [0]
					},
					"t": 11,
					"s": [5],
					"e": [-5]
				}, {
					"i": {
						"x": [0.667],
						"y": [1]
					},
					"o": {
						"x": [0.333],
						"y": [0]
					},
					"t": 14,
					"s": [-5],
					"e": [5]
				}, {
					"i": {
						"x": [0.667],
						"y": [1]
					},
					"o": {
						"x": [0.333],
						"y": [0]
					},
					"t": 17,
					"s": [5],
					"e": [-5]
				}, {
					"i": {
						"x": [0.667],
						"y": [1]
					},
					"o": {
						"x": [0.333],
						"y": [0]
					},
					"t": 20,
					"s": [-5],
					"e": [5]
				}, {
					"i": {
						"x": [0.667],
						"y": [1]
					},
					"o": {
						"x": [0.333],
						"y": [0]
					},
					"t": 23,
					"s": [5],
					"e": [-5]
				}, {
					"i": {
						"x": [0.667],
						"y": [1]
					},
					"o": {
						"x": [0.333],
						"y": [0]
					},
					"t": 26,
					"s": [-5],
					"e": [5]
				}, {
					"i": {
						"x": [0.667],
						"y": [1]
					},
					"o": {
						"x": [0.333],
						"y": [0]
					},
					"t": 29,
					"s": [5],
					"e": [-5]
				}, {
					"i": {
						"x": [0.667],
						"y": [1]
					},
					"o": {
						"x": [0.333],
						"y": [0]
					},
					"t": 32,
					"s": [-5],
					"e": [5]
				}, {
					"i": {
						"x": [0.667],
						"y": [1]
					},
					"o": {
						"x": [0.333],
						"y": [0]
					},
					"t": 35,
					"s": [5],
					"e": [-5]
				}, {
					"i": {
						"x": [0.667],
						"y": [1]
					},
					"o": {
						"x": [0.333],
						"y": [0]
					},
					"t": 38,
					"s": [-5],
					"e": [5]
				}, {
					"i": {
						"x": [0.667],
						"y": [1]
					},
					"o": {
						"x": [0.333],
						"y": [0]
					},
					"t": 41,
					"s": [5],
					"e": [-5]
				}, {
					"i": {
						"x": [0.667],
						"y": [1]
					},
					"o": {
						"x": [0.333],
						"y": [0]
					},
					"t": 44,
					"s": [-5],
					"e": [5]
				}, {
					"i": {
						"x": [0.667],
						"y": [1]
					},
					"o": {
						"x": [0.333],
						"y": [0]
					},
					"t": 47,
					"s": [5],
					"e": [-5]
				}, {
					"i": {
						"x": [0.667],
						"y": [1]
					},
					"o": {
						"x": [0.333],
						"y": [0]
					},
					"t": 50,
					"s": [-5],
					"e": [5]
				}, {
					"t": 53
				}],
				"ix": 10
			},
			"or": {
				"a": 0,
				"k": [0, 0, 0],
				"ix": 7
			},
			"p": {
				"a": 0,
				"k": [465.5, 216, 0],
				"ix": 2
			},
			"a": {
				"a": 0,
				"k": [180, 169, 0],
				"ix": 1
			},
			"s": {
				"a": 0,
				"k": [100, 100, 100],
				"ix": 6
			}
		},
		"ao": 0,
		"ip": 0,
		"op": 750,
		"st": 0,
		"bm": 0
	}, {
		"ddd": 0,
		"ind": 7,
		"ty": 2,
		"nm": "Lark20210728-110606.png",
		"cl": "png",
		"refId": "image_2",
		"sr": 1,
		"ks": {
			"o": {
				"a": 0,
				"k": 100,
				"ix": 11
			},
			"r": {
				"a": 0,
				"k": 0,
				"ix": 10
			},
			"p": {
				"a": 0,
				"k": [501.625, 344.875, 0],
				"ix": 2
			},
			"a": {
				"a": 0,
				"k": [258.5, 65.5, 0],
				"ix": 1
			},
			"s": {
				"a": 0,
				"k": [100, 100, 100],
				"ix": 6
			}
		},
		"ao": 0,
		"ip": 0,
		"op": 750,
		"st": 0,
		"bm": 0
	}, {
		"ddd": 0,
		"ind": 8,
		"ty": 0,
		"nm": "合成 2_[00000-00049].png",
		"cl": "png",
		"refId": "sequence_0",
		"sr": 1,
		"ks": {
			"o": {
				"a": 0,
				"k": 100,
				"ix": 11
			},
			"r": {
				"a": 0,
				"k": 0,
				"ix": 10
			},
			"p": {
				"a": 0,
				"k": [502, 229, 0],
				"ix": 2
			},
			"a": {
				"a": 0,
				"k": [502, 229, 0],
				"ix": 1
			},
			"s": {
				"a": 0,
				"k": [100, 100, 100],
				"ix": 6
			}
		},
		"ao": 0,
		"w": 1004,
		"h": 458,
		"ip": 0,
		"op": 50,
		"st": 0,
		"bm": 0
	}],
	"markers": []
}
